Data Visualizations: graph gallery
…
## `palmerpenguins` 

#### [Package website](https://allisonhorst.github.io/palmerpenguins/)

.small[

```r
(palmerpenguins::penguins -> penguins)
```

```
  # A tibble: 344 × 8
     species island    bill_length_mm bill_depth_mm
     <fct>   <fct>              <dbl>         <dbl>
   1 Adelie  Torgersen           39.1          18.7
   2 Adelie  Torgersen           39.5          17.4
   3 Adelie  Torgersen           40.3          18  
   4 Adelie  Torgersen           NA            NA  
   5 Adelie  Torgersen           36.7          19.3
   6 Adelie  Torgersen           39.3          20.6
   7 Adelie  Torgersen           38.9          17.8
   8 Adelie  Torgersen           39.2          19.6
   9 Adelie  Torgersen           34.1          18.1
  10 Adelie  Torgersen           42            20.2
  # … with 334 more rows, and 4 more variables:
  #   flipper_length_mm <int>, body_mass_g <int>, sex <fct>,
  #   year <int>
```
…
---
class: left, top
background-image: url(img/ggplot2.png)
background-position: 95% 8%
background-size: 8%

## `ggplot2movies` 

[Package website](https://github.com/hadley/ggplot2movies)

```
  # A tibble: 751 × 7
     title        year length  budget rating mpaa  genres     
     <chr>       <int>  <int>   <int>  <dbl> <fct> <chr>      
   1 100 Mile R…  2002     98   1.1e6    5.6 R     comedy     
   2 13 Going O…  2004     98   3.7e7    6.4 PG-13 drama, com…
   3 15 Minutes   2001    120   4.2e7    6.1 R     drama      
   4 2 Fast 2 F…  2003    107   7.6e7    5.1 PG-13 action     
   5 2046         2004    129   1.2e7    7.6 R     drama, rom…
   6 21 Grams     2003    124   2  e7    8   R     drama      
   7 25th Hour    2002    135   1.5e7    7.8 R     drama      
   8 3000 Miles…  2001    125   6.2e7    5.4 R     action, co…
   9 40 Days an…  2002     96   1.7e7    5.4 R     drama, com…
  10 50 First D…  2004     99   7.5e7    6.8 PG-13 comedy, ro…
  # … with 741 more rows
```
…
